<?xml version="1.0" encoding="utf-8"?>
<!-- Generator: Adobe Illustrator 16.0.0, SVG Export Plug-In . SVG Version: 6.00 Build 0)  -->
<!DOCTYPE svg PUBLIC "-//W3C//DTD SVG 1.1//EN" "http://www.w3.org/Graphics/SVG/1.1/DTD/svg11.dtd">
<svg version="1.1" id="Layer_1" xmlns="http://www.w3.org/2000/svg" xmlns:xlink="http://www.w3.org/1999/xlink" x="0px" y="0px"
	 width="22.428px" height="10.465px" viewBox="0 0 22.428 10.465" enable-background="new 0 0 22.428 10.465" xml:space="preserve">
<polygon fill="#E48020" points="22.428,-0.018 17.063,-0.014 11.224,5.449 5.375,-0.006 0,0 11.224,10.465 "/>
</svg>
