<?xml version="1.0" encoding="utf-8"?>
<!-- Generator: Adobe Illustrator 16.0.0, SVG Export Plug-In . SVG Version: 6.00 Build 0)  -->
<!DOCTYPE svg PUBLIC "-//W3C//DTD SVG 1.1//EN" "http://www.w3.org/Graphics/SVG/1.1/DTD/svg11.dtd">
<svg version="1.1" id="Layer_1" xmlns="http://www.w3.org/2000/svg" xmlns:xlink="http://www.w3.org/1999/xlink" x="0px" y="0px"
	 width="53.893px" height="44.677px" viewBox="0 0 53.893 44.677" enable-background="new 0 0 53.893 44.677" xml:space="preserve">
<path fill="#F07C00" d="M10.23,33.951c1.533,0,2.983-0.357,4.275-0.99c-0.986-0.929-1.814-2.021-2.445-3.234
	c-0.572-0.079-1.133-0.12-1.828-0.12c-1.227,0-2.031,0.123-3.235,0.369c-2.288,0.477-0.101-2.198,3.235-2.198
	c0.367,0,0.719,0.033,1.053,0.091c-0.369-1.157-0.572-2.388-0.572-3.667c0-3.45,1.462-6.562,3.793-8.759
	c-1.292-0.633-2.742-0.99-4.275-0.99c-5.377,0-9.75,4.374-9.75,9.75C0.48,29.577,4.854,33.951,10.23,33.951z M6.64,20.009
	c1.157,0,2.097,0.938,2.097,2.096c0,1.158-0.939,2.096-2.097,2.096s-2.097-0.938-2.097-2.096C4.543,20.947,5.482,20.009,6.64,20.009
	z"/>
<path fill="#F07C00" d="M13.002,24.201c0,5.376,4.371,9.75,9.748,9.75c1.695,0,3.289-0.436,4.678-1.198
	c-0.808-0.934-1.515-1.958-2.098-3.057h-5.835c-0.478,0-0.866-0.388-0.866-0.866V28.71c0-0.478,0.389-0.866,0.866-0.866h4.996
	c-0.686-1.804-1.064-3.758-1.064-5.8c0-2.619,0.621-5.096,1.72-7.294c-0.768-0.195-1.57-0.299-2.396-0.299
	C17.373,14.451,13.002,18.825,13.002,24.201z M21.258,22.32c0,1.158-0.939,2.096-2.098,2.096c-1.156,0-2.096-0.938-2.096-2.096
	s0.939-2.096,2.096-2.096C20.318,20.224,21.258,21.162,21.258,22.32z"/>
<path fill="#F07C00" d="M25.715,22.044c0,7.769,6.319,14.089,14.088,14.089c7.77,0,14.09-6.32,14.09-14.089
	s-6.32-14.089-14.09-14.089C32.034,7.955,25.715,14.275,25.715,22.044z M39.803,10.532c6.349,0,11.513,5.164,11.513,11.512
	c0,6.348-5.164,11.512-11.513,11.512c-6.347,0-11.512-5.164-11.512-11.512C28.291,15.696,33.456,10.532,39.803,10.532z"/>
<path fill="#F07C00" d="M39.805,29.766c4.727-0.001,7.826-4.257,4.583-3.497c-1.706,0.39-2.845,0.586-4.585,0.586
	c-1.739,0-2.877-0.196-4.584-0.586C31.984,25.511,35.072,29.767,39.805,29.766z"/>
<circle fill="#F07C00" cx="35.565" cy="19.569" r="2.476"/>
<circle fill="#F07C00" cx="44.041" cy="19.569" r="2.475"/>
</svg>
